fifo.vcd
$date
	Sat Nov 22 12:25:23 2025
$end
$version
	Icarus Verilog
$end
$timescale
	1s
$end
$scope module tb $end
$var wire 1 ! full $end
$var wire 1 " empty $end
$var wire 8 # dout [7:0] $end
$var wire 1 $ almost_full $end
$var wire 1 % almost_empty $end
$var reg 1 & clk $end
$var reg 8 ' din [7:0] $end
$var reg 1 ( rd_en $end
$var reg 1 ) rst $end
$var reg 1 * wr_en $end
$var reg 8 + count_covered [7:0] $end
$var reg 4 , status_covered [3:0] $end
$scope module dut $end
$var wire 1 & clk $end
$var wire 8 - din [7:0] $end
$var wire 1 ( rd_en $end
$var wire 1 ) rst $end
$var wire 1 * wr_en $end
$var wire 1 ! full $end
$var wire 1 " empty $end
$var wire 1 $ almost_full $end
$var wire 1 % almost_empty $end
$var parameter 32 . ALMOST $end
$var parameter 32 / DEPTH $end
$var parameter 32 0 WIDTH $end
$var reg 4 1 count [3:0] $end
$var reg 8 2 dout [7:0] $end
$var reg 4 3 rd_ptr [3:0] $end
$var reg 4 4 wr_ptr [3:0] $end
$upscope $end
$scope begin $unm_blk_11 $end
$var integer 32 5 cnt [31:0] $end
$var integer 32 6 stat [31:0] $end
$scope begin $ivl_for_loop0 $end
$var integer 32 7 i [31:0] $end
$upscope $end
$upscope $end
$upscope $end
$enddefinitions $end
$comment Show the parameter values. $end
$dumpall
b1000 0
b1000 /
b10 .
$end
#0
$dumpvars
b0 7
b0 6
b0 5
bx 4
bx 3
bx 2
bx 1
bx -
b0 ,
b0 +
x*
1)
x(
bx '
0&
x%
x$
bx #
x"
x!
$end
#5
b0 #
b0 2
0!
1"
0$
1%
b0 1
b0 3
b0 4
1&
#10
0&
#15
1&
#20
0&
b100100 '
b100100 -
0(
1*
0)
#25
0"
b1 1
b1 4
b101 ,
b1 +
1&
#30
0&
b10000001 '
b10000001 -
0*
#35
b11 +
1&
#40
0&
b1001 '
b1001 -
1(
1*
#45
b1 3
b100100 #
b100100 2
b10 4
1&
#50
0&
b1100011 '
b1100011 -
0(
0*
#55
1&
#60
0&
b1101 '
b1101 -
1(
1*
#65
b10 3
b1001 #
b1001 2
b11 4
1&
#70
0&
b10001101 '
b10001101 -
#75
b11 3
b1101 #
b1101 2
b100 4
1&
#80
0&
b1100101 '
b1100101 -
#85
b100 3
b10001101 #
b10001101 2
b101 4
1&
#90
0&
b10010 '
b10010 -
0(
#95
b10 1
b110 4
1&
#100
0&
b1 '
b1 -
0*
#105
b111 +
1&
#110
0&
b1101 '
b1101 -
1*
#115
0%
b11 1
b111 4
1&
#120
0&
b1110110 '
b1110110 -
1(
0*
#125
1%
b10 1
b101 3
b1100101 #
b1100101 2
b1111 +
1&
#130
0&
b111101 '
b111101 -
0(
1*
#135
0%
b11 1
b1000 4
1&
#140
0&
b11101101 '
b11101101 -
0*
#145
1&
#150
0&
b10001100 '
b10001100 -
1*
#155
b100 1
b1001 4
1&
#160
0&
b11111001 '
b11111001 -
0*
#165
b11111 +
1&
#170
0&
b11000110 '
b11000110 -
1(
#175
b11 1
b110 3
b10010 #
b10010 2
1&
#180
0&
b11000101 '
b11000101 -
#185
1%
b10 1
b111 3
b1101 #
b1101 2
1&
#190
0&
b10101010 '
b10101010 -
0(
1*
#195
0%
b11 1
b1010 4
1&
#200
0&
b11100101 '
b11100101 -
0*
#205
1&
#210
0&
b1110111 '
b1110111 -
#215
1&
#220
0&
b10010 '
b10010 -
1*
#225
b100 1
b1011 4
1&
#230
0&
b10001111 '
b10001111 -
0*
#235
1&
#240
0&
b11110010 '
b11110010 -
1*
#245
b101 1
b1100 4
1&
#250
0&
b11001110 '
b11001110 -
1(
#255
b1000 3
b111101 #
b111101 2
b1101 4
b111111 +
1&
#260
0&
b11101000 '
b11101000 -
0(
0*
#265
1&
#270
0&
b11000101 '
b11000101 -
1(
1*
#275
b1001 3
b10001100 #
b10001100 2
b1110 4
1&
#280
0&
b1011100 '
b1011100 -
0(
#285
1$
b110 1
b1111 4
1&
#290
0&
b10111101 '
b10111101 -
#295
b111 1
b0 4
b111 ,
b1111111 +
1&
#300
0&
b101101 '
b101101 -
1(
#305
b1010 3
b10101010 #
b10101010 2
b1 4
b11111111 +
1&
#310
0&
b1100101 '
b1100101 -
#315
b1011 3
b10010 #
b10010 2
b10 4
1&
#320
0&
b1100011 '
b1100011 -
0*
#325
b110 1
b1100 3
b11110010 #
b11110010 2
1&
#330
0&
b1010 '
b1010 -
0(
#335
1&
#340
0&
b10000000 '
b10000000 -
1(
1*
#345
b1101 3
b11001110 #
b11001110 2
b11 4
1&
#350
0&
b100000 '
b100000 -
0*
#355
0$
b101 1
b1110 3
b11000101 #
b11000101 2
1&
#360
0&
b10101010 '
b10101010 -
#365
b100 1
b1111 3
b1011100 #
b1011100 2
1&
#370
0&
b10011101 '
b10011101 -
1*
#375
b0 3
b10111101 #
b10111101 2
b100 4
1&
#380
0&
b10010110 '
b10010110 -
#385
b1 3
b101101 #
b101101 2
b101 4
1&
#390
0&
b10011 '
b10011 -
#395
b10 3
b1100101 #
b1100101 2
b110 4
1&
#400
0&
b1101 '
b1101 -
0(
#405
b101 1
b111 4
1&
#410
0&
b1010011 '
b1010011 -
0*
#415
1&
#420
0&
b1101011 '
b1101011 -
1(
#425
b100 1
b11 3
b10000000 #
b10000000 2
1&
#430
0&
b11010101 '
b11010101 -
0(
#435
1&
#440
0&
b10 '
b10 -
#445
1&
#450
0&
b10101110 '
b10101110 -
1(
1*
#455
b100 3
b10011101 #
b10011101 2
b1000 4
1&
#460
0&
b11101 '
b11101 -
0*
#465
b11 1
b101 3
b10010110 #
b10010110 2
1&
#470
0&
b11001111 '
b11001111 -
#475
1%
b10 1
b110 3
b10011 #
b10011 2
1&
#480
0&
b100011 '
b100011 -
0(
1*
#485
0%
b11 1
b1001 4
1&
#490
0&
b1010 '
b1010 -
1(
#495
b111 3
b1101 #
b1101 2
b1010 4
1&
#500
0&
b11001010 '
b11001010 -
0(
#505
b100 1
b1011 4
1&
#510
0&
b111100 '
b111100 -
#515
b101 1
b1100 4
1&
#520
0&
b11110010 '
b11110010 -
1(
#525
b1000 3
b10101110 #
b10101110 2
b1101 4
1&
#530
0&
b10001010 '
b10001010 -
0*
#535
b100 1
b1001 3
b100011 #
b100011 2
1&
#540
0&
b1000001 '
b1000001 -
0(
1*
#545
b101 1
b1110 4
1&
#550
0&
b11011000 '
b11011000 -
0*
#555
1&
#560
0&
b1111000 '
b1111000 -
1*
#565
1$
b110 1
b1111 4
1&
#570
0&
b10001001 '
b10001001 -
#575
b111 1
b0 4
1&
#580
0&
b11101011 '
b11101011 -
0*
#585
1&
#590
0&
b10110110 '
b10110110 -
1(
#595
b110 1
b1010 3
b1010 #
b1010 2
1&
#600
0&
b11000110 '
b11000110 -
0(
1*
#605
b111 1
b1 4
1&
#610
0&
b10101110 '
b10101110 -
1(
0*
#615
b110 1
b1011 3
b11001010 #
b11001010 2
1&
#620
0&
b10111100 '
b10111100 -
0(
1*
#625
b111 1
b10 4
1&
#630
0&
b101010 '
b101010 -
0*
#635
1&
#640
0&
b1011 '
b1011 -
#645
1&
#650
0&
b1110001 '
b1110001 -
1(
1*
#655
b1100 3
b111100 #
b111100 2
b11 4
1&
#660
0&
b10000101 '
b10000101 -
0*
#665
b110 1
b1101 3
b11110010 #
b11110010 2
1&
#670
0&
b1001111 '
b1001111 -
1*
#675
b1110 3
b1000001 #
b1000001 2
b100 4
1&
#680
0&
b111011 '
b111011 -
0(
#685
b111 1
b101 4
1&
#690
0&
b111010 '
b111010 -
0*
#695
1&
#700
0&
b1111110 '
b1111110 -
1(
1*
#705
b1111 3
b1111000 #
b1111000 2
b110 4
1&
#710
0&
b10101 '
b10101 -
0(
0*
#715
1&
#720
0&
b11110001 '
b11110001 -
1*
#725
1!
b1000 1
b111 4
1&
#730
0&
b11011001 '
b11011001 -
#735
b1111 ,
1&
#740
0&
b1100010 '
b1100010 -
1(
#745
0!
b111 1
b0 3
b10001001 #
b10001001 2
1&
#750
0&
b1001100 '
b1001100 -
0(
0*
#755
1&
#760
0&
b10011111 '
b10011111 -
1*
#765
1!
b1000 1
b1000 4
1&
#770
0&
b10001111 '
b10001111 -
#775
1&
#780
0&
b11111000 '
b11111000 -
1(
0*
#785
0!
b111 1
b1 3
b11000110 #
b11000110 2
1&
#790
0&
b10110111 '
b10110111 -
1*
#795
b10 3
b10111100 #
b10111100 2
b1001 4
1&
#800
0&
b10011111 '
b10011111 -
0*
#805
b110 1
b11 3
b1110001 #
b1110001 2
1&
#810
0&
b1011100 '
b1011100 -
1*
#815
b100 3
b1001111 #
b1001111 2
b1010 4
1&
#820
0&
b1011011 '
b1011011 -
0*
#825
0$
b101 1
b101 3
b111011 #
b111011 2
1&
#830
0&
b10001001 '
b10001001 -
0(
1*
#835
1$
b110 1
b1011 4
1&
#840
0&
b1001001 '
b1001001 -
0*
#845
1&
#850
0&
b11010000 '
b11010000 -
1(
#855
0$
b101 1
b110 3
b1111110 #
b1111110 2
1&
#860
0&
b11010111 '
b11010111 -
#865
b100 1
b111 3
b11110001 #
b11110001 2
1&
#870
0&
b1010001 '
b1010001 -
#875
b11 1
b1000 3
b10011111 #
b10011111 2
1&
#880
0&
b10010110 '
b10010110 -
0(
#885
1&
#890
0&
b1100 '
b1100 -
1*
#895
b100 1
b1100 4
1&
#900
0&
b11000010 '
b11000010 -
1(
0*
#905
b11 1
b1001 3
b10110111 #
b10110111 2
1&
#910
0&
b11001000 '
b11001000 -
1*
#915
b1010 3
b1011100 #
b1011100 2
b1101 4
1&
#920
0&
b1110111 '
b1110111 -
0(
#925
b100 1
b1110 4
1&
#930
0&
b111101 '
b111101 -
1(
0*
#935
b11 1
b1011 3
b10001001 #
b10001001 2
1&
#940
0&
b10010 '
b10010 -
1*
#945
b1100 3
b1100 #
b1100 2
b1111 4
1&
#950
0&
b1111110 '
b1111110 -
0(
#955
b100 1
b0 4
1&
#960
0&
b1101101 '
b1101101 -
1(
#965
b1101 3
b11001000 #
b11001000 2
b1 4
1&
#970
0&
b111001 '
b111001 -
#975
b1110 3
b1110111 #
b1110111 2
b10 4
1&
#980
0&
b11111 '
b11111 -
0(
#985
b101 1
b11 4
1&
#990
0&
b11010011 '
b11010011 -
1(
0*
#995
b100 1
b1111 3
b10010 #
b10010 2
1&
#1000
0&
b10000101 '
b10000101 -
0(
#1005
1&
#1010
0&
b1111000 '
b1111000 -
1*
#1015
b101 1
b100 4
1&
#1020
0&
b1011011 '
b1011011 -
#1025
1$
b110 1
b101 4
1&
#1030
0&
b1001001 '
b1001001 -
#1035
b111 1
b110 4
1&
#1040
0&
b111111 '
b111111 -
1(
0*
#1045
b110 1
b0 3
b1111110 #
b1111110 2
1&
#1050
0&
b101010 '
b101010 -
0(
#1055
1&
#1060
0&
b1011000 '
b1011000 -
1*
#1065
b111 1
b111 4
1&
#1070
0&
b10000110 '
b10000110 -
0*
#1075
1&
#1080
0&
b10001110 '
b10001110 -
1*
#1085
1!
b1000 1
b1000 4
1&
#1090
0&
b10011100 '
b10011100 -
#1095
1&
#1100
0&
b11111010 '
b11111010 -
#1105
1&
#1110
0&
b100110 '
b100110 -
1(
0*
#1115
0!
b111 1
b1 3
b1101101 #
b1101101 2
1&
#1120
0&
b1110011 '
b1110011 -
0(
1*
#1125
1!
b1000 1
b1001 4
1&
#1130
0&
b10100011 '
b10100011 -
#1135
1&
#1140
0&
b101111 '
b101111 -
1(
0*
#1145
0!
b111 1
b10 3
b111001 #
b111001 2
1&
#1150
0&
b10110011 '
b10110011 -
1*
#1155
b11 3
b11111 #
b11111 2
b1010 4
1&
#1160
0&
b1011111 '
b1011111 -
0(
#1165
1!
b1000 1
b1011 4
1&
#1170
0&
b1000100 '
b1000100 -
1(
#1175
0!
b111 1
b100 3
b1111000 #
b1111000 2
1&
#1180
0&
b11110111 '
b11110111 -
#1185
b101 3
b1011011 #
b1011011 2
b1100 4
1&
#1190
0&
b11001011 '
b11001011 -
0(
#1195
1!
b1000 1
b1101 4
1&
#1200
0&
b11100110 '
b11100110 -
#1205
1&
#1210
0&
b1011010 '
b1011010 -
#1215
1&
#1220
0&
b101001 '
b101001 -
#1225
1&
#1230
0&
b11101101 '
b11101101 -
#1235
1&
#1240
0&
b11011010 '
b11011010 -
1(
#1245
0!
b111 1
b110 3
b1001001 #
b1001001 2
1&
#1250
0&
b1100101 '
b1100101 -
0*
#1255
b110 1
b111 3
b1011000 #
b1011000 2
1&
#1260
0&
b10110101 '
b10110101 -
0(
#1265
1&
#1270
0&
b11011111 '
b11011111 -
1(
#1275
0$
b101 1
b1000 3
b10001110 #
b10001110 2
1&
#1280
0&
b1111001 '
b1111001 -
0(
1*
#1285
1$
b110 1
b1110 4
1&
#1290
0&
b1000100 '
b1000100 -
1(
0*
#1295
0$
b101 1
b1001 3
b1110011 #
b1110011 2
1&
#1300
0&
b11010000 '
b11010000 -
0(
1*
#1305
1$
b110 1
b1111 4
1&
#1310
0&
b101010 '
b101010 -
1(
#1315
b1010 3
b10110011 #
b10110011 2
b0 4
1&
#1320
0&
b10101011 '
b10101011 -
0(
#1325
b111 1
b1 4
1&
#1330
0&
b1110 '
b1110 -
#1335
1!
b1000 1
b10 4
1&
#1340
0&
b11011100 '
b11011100 -
1(
0*
#1345
0!
b111 1
b1011 3
b1011111 #
b1011111 2
1&
#1350
0&
b10011010 '
b10011010 -
1*
#1355
b1100 3
b11110111 #
b11110111 2
b11 4
1&
#1360
0&
b11111101 '
b11111101 -
0(
#1365
1!
b1000 1
b100 4
1&
#1370
0&
b11000011 '
b11000011 -
0*
#1375
1&
#1380
0&
b1010110 '
b1010110 -
1(
1*
#1385
0!
b111 1
b1101 3
b11001011 #
b11001011 2
1&
#1390
0&
b1001110 '
b1001110 -
0(
0*
#1395
1&
#1400
0&
b1100111 '
b1100111 -
#1405
1&
#1410
0&
b1010 '
b1010 -
1*
#1415
1!
b1000 1
b101 4
1&
#1420
0&
b10110110 '
b10110110 -
#1425
1&
#1430
0&
b111000 '
b111000 -
0*
#1435
1&
#1440
0&
b1111001 '
b1111001 -
1(
#1445
0!
b111 1
b1110 3
b1111001 #
b1111001 2
1&
#1450
0&
b10111000 '
b10111000 -
1*
#1455
b1111 3
b11010000 #
b11010000 2
b110 4
1&
#1460
0&
b10010100 '
b10010100 -
#1465
b0 3
b101010 #
b101010 2
b111 4
1&
#1470
0&
b10010011 '
b10010011 -
0(
0*
#1475
1&
#1480
0&
b100 '
b100 -
1*
#1485
1!
b1000 1
b1000 4
1&
#1490
0&
b1011001 '
b1011001 -
#1495
1&
#1500
0&
b11011011 '
b11011011 -
0*
#1505
1&
#1510
0&
b1001101 '
b1001101 -
1*
#1515
1&
#1520
0&
b11011001 '
b11011001 -
1(
#1525
0!
b111 1
b1 3
b10101011 #
b10101011 2
1&
#1530
0&
b1101101 '
b1101101 -
0(
#1535
1!
b1000 1
b1001 4
1&
#1540
0&
b1110110 '
b1110110 -
#1545
1&
#1550
0&
b11001010 '
b11001010 -
0*
#1555
1&
#1560
0&
b10110110 '
b10110110 -
1(
#1565
0!
b111 1
b10 3
b1110 #
b1110 2
1&
#1570
0&
b10010101 '
b10010101 -
1*
#1575
b11 3
b10011010 #
b10011010 2
b1010 4
1&
#1580
0&
b1000110 '
b1000110 -
0*
#1585
b110 1
b100 3
b11111101 #
b11111101 2
1&
#1590
0&
b100 '
b100 -
0(
1*
#1595
b111 1
b1011 4
1&
#1600
0&
b11110111 '
b11110111 -
#1605
1!
b1000 1
b1100 4
1&
#1610
0&
b1101001 '
b1101001 -
0*
#1615
1&
#1620
0&
b10110100 '
b10110100 -
#1625
1&
#1630
0&
b10001000 '
b10001000 -
1(
1*
#1635
0!
b111 1
b101 3
b1010 #
b1010 2
1&
#1640
0&
b101000 '
b101000 -
#1645
b110 3
b10111000 #
b10111000 2
b1101 4
1&
#1650
0&
b101101 '
b101101 -
0*
#1655
b110 1
b111 3
b10010100 #
b10010100 2
1&
#1660
0&
b11000111 '
b11000111 -
#1665
0$
b101 1
b1000 3
b100 #
b100 2
1&
#1670
0&
b101110 '
b101110 -
1*
#1675
b1001 3
b1101101 #
b1101101 2
b1110 4
1&
#1680
0&
b1000 '
b1000 -
0*
#1685
b100 1
b1010 3
b10010101 #
b10010101 2
1&
#1690
0&
b11100 '
b11100 -
1*
#1695
b1011 3
b100 #
b100 2
b1111 4
1&
#1700
0&
b11111101 '
b11111101 -
0(
#1705
b101 1
b0 4
1&
#1710
0&
b101001 '
b101001 -
#1715
1$
b110 1
b1 4
1&
#1720
0&
b11100 '
b11100 -
#1725
b111 1
b10 4
1&
#1730
0&
b10000110 '
b10000110 -
1(
#1735
b1100 3
b11110111 #
b11110111 2
b11 4
1&
#1740
0&
b11011010 '
b11011010 -
0(
0*
#1745
1&
#1750
0&
b111101 '
b111101 -
1(
1*
#1755
b1101 3
b101000 #
b101000 2
b100 4
1&
#1760
0&
b1100110 '
b1100110 -
0(
#1765
1!
b1000 1
b101 4
1&
#1770
0&
b1110000 '
b1110000 -
1(
0*
#1775
0!
b111 1
b1110 3
b101110 #
b101110 2
1&
#1780
0&
b1110011 '
b1110011 -
0(
#1785
1&
#1790
0&
b10111010 '
b10111010 -
1(
#1795
b110 1
b1111 3
b11100 #
b11100 2
1&
#1800
0&
b1011110 '
b1011110 -
0(
#1805
1&
#1810
0&
b11111010 '
b11111010 -
1*
#1815
b111 1
b110 4
1&
#1820
0&
b11010101 '
b11010101 -
#1825
1!
b1000 1
b111 4
1&
#1830
0&
b11010 '
b11010 -
#1835
1&
#1840
0&
b10111001 '
b10111001 -
0*
#1845
1&
#1850
0&
b110111 '
b110111 -
1(
#1855
0!
b111 1
b0 3
b11111101 #
b11111101 2
1&
#1860
0&
b10010110 '
b10010110 -
#1865
b110 1
b1 3
b101001 #
b101001 2
1&
#1870
0&
b11000000 '
b11000000 -
1*
#1875
b10 3
b11100 #
b11100 2
b1000 4
1&
#1880
0&
b100110 '
b100110 -
0(
#1885
b111 1
b1001 4
1&
#1890
0&
b10110110 '
b10110110 -
0*
#1895
1&
#1900
0&
b1111101 '
b1111101 -
1(
1*
#1905
b11 3
b10000110 #
b10000110 2
b1010 4
1&
#1910
0&
b11011100 '
b11011100 -
0(
#1915
1!
b1000 1
b1011 4
1&
#1920
0&
b10000110 '
b10000110 -
1(
#1925
0!
b111 1
b100 3
b111101 #
b111101 2
1&
#1930
0&
b1111000 '
b1111000 -
0*
#1935
b110 1
b101 3
b1100110 #
b1100110 2
1&
#1940
0&
b1111110 '
b1111110 -
1*
#1945
b110 3
b11111010 #
b11111010 2
b1100 4
1&
#1950
0&
b11011011 '
b11011011 -
0(
#1955
b111 1
b1101 4
1&
#1960
0&
b11001111 '
b11001111 -
#1965
1!
b1000 1
b1110 4
1&
#1970
0&
b1111001 '
b1111001 -
#1975
1&
#1980
0&
b11111010 '
b11111010 -
0*
#1985
1&
#1990
0&
b1100001 '
b1100001 -
1*
#1995
1&
#2000
0&
b10111 '
b10111 -
0*
#2005
1&
#2010
0&
b10100001 '
b10100001 -
1(
#2015
0!
b111 1
b111 3
b11010101 #
b11010101 2
1&
#2020
0&
b10000110 '
b10000110 -
#2025
b110 1
b1000 3
b11000000 #
b11000000 2
1&
#2030
0&
b1010000 '
b1010000 -
0(
1*
#2035
b111 1
b1111 4
1&
#2040
0&
b11110101 '
b11110101 -
1(
0*
#2045
b110 1
b1001 3
b100110 #
b100110 2
1&
#2050
0&
b110101 '
b110101 -
#2055
0$
b101 1
b1010 3
b1111101 #
b1111101 2
1&
#2060
0&
b101001 '
b101001 -
0(
1*
#2065
1$
b110 1
b0 4
1&
#2070
0&
b11000001 '
b11000001 -
1(
#2075
b1011 3
b11011100 #
b11011100 2
b1 4
1&
#2080
0&
b11000101 '
b11000101 -
0*
#2085
0$
b101 1
b1100 3
b1111110 #
b1111110 2
1&
#2090
0&
b10011000 '
b10011000 -
1*
#2095
b1101 3
b11011011 #
b11011011 2
b10 4
1&
#2100
0&
b1001011 '
b1001011 -
#2105
b1110 3
b11001111 #
b11001111 2
b11 4
1&
#2110
0&
b1110011 '
b1110011 -
0(
0*
#2115
1&
#2120
0&
b11101100 '
b11101100 -
1(
#2125
b100 1
b1111 3
b1010000 #
b1010000 2
1&
#2130
0&
b10001010 '
b10001010 -
1*
#2135
b0 3
b101001 #
b101001 2
b100 4
1&
#2140
0&
b1001110 '
b1001110 -
#2145
b1 3
b11000001 #
b11000001 2
b101 4
1&
#2150
0&
b10101000 '
b10101000 -
0*
#2155
b11 1
b10 3
b10011000 #
b10011000 2
1&
#2160
0&
b10101001 '
b10101001 -
#2165
1%
b10 1
b11 3
b1001011 #
b1001011 2
1&
#2170
0&
b10100001 '
b10100001 -
0(
1*
#2175
0%
b11 1
b110 4
1&
#2180
0&
b1110 '
b1110 -
0*
#2185
1&
#2190
0&
b11100110 '
b11100110 -
1(
1*
#2195
b100 3
b10001010 #
b10001010 2
b111 4
1&
#2200
0&
b10011111 '
b10011111 -
0*
#2205
1%
b10 1
b101 3
b1001110 #
b1001110 2
1&
#2210
0&
b101010 '
b101010 -
0(
#2215
1&
#2220
0&
1*
#2225
0%
b11 1
b1000 4
1&
#2230
0&
b10001101 '
b10001101 -
1(
0*
#2235
1%
b10 1
b110 3
b10100001 #
b10100001 2
1&
#2240
0&
b10011110 '
b10011110 -
1*
#2245
b111 3
b11100110 #
b11100110 2
b1001 4
1&
#2250
0&
b111000 '
b111000 -
0(
#2255
0%
b11 1
b1010 4
1&
#2260
0&
b1111001 '
b1111001 -
0*
#2265
1&
#2270
0&
b11001000 '
b11001000 -
1(
#2275
1%
b10 1
b1000 3
b101010 #
b101010 2
1&
#2280
0&
b11001010 '
b11001010 -
1*
#2285
b1001 3
b10011110 #
b10011110 2
b1011 4
1&
#2290
0&
b10011 '
b10011 -
0(
#2295
0%
b11 1
b1100 4
1&
#2300
0&
b1101011 '
b1101011 -
1(
0*
#2305
1%
b10 1
b1010 3
b111000 #
b111000 2
1&
#2310
0&
b11000111 '
b11000111 -
0(
1*
#2315
0%
b11 1
b1101 4
1&
#2320
0&
b10110110 '
b10110110 -
#2325
b100 1
b1110 4
1&
#2330
0&
b10111010 '
b10111010 -
#2335
b101 1
b1111 4
1&
#2340
0&
b11000100 '
b11000100 -
0*
#2345
1&
#2350
0&
b10111001 '
b10111001 -
1(
1*
#2355
b1011 3
b11001010 #
b11001010 2
b0 4
1&
#2360
0&
b10010010 '
b10010010 -
#2365
b1100 3
b10011 #
b10011 2
b1 4
1&
#2370
0&
b10110100 '
b10110100 -
#2375
b1101 3
b11000111 #
b11000111 2
b10 4
1&
#2380
0&
b1111111 '
b1111111 -
#2385
b1110 3
b10110110 #
b10110110 2
b11 4
1&
#2390
0&
b10000110 '
b10000110 -
0(
#2395
1$
b110 1
b100 4
1&
#2400
0&
b11111010 '
b11111010 -
#2405
b111 1
b101 4
1&
#2410
0&
b11110010 '
b11110010 -
0*
#2415
1&
#2420
0&
b110010 '
b110010 -
1(
#2425
b110 1
b1111 3
b10111010 #
b10111010 2
1&
#2430
0&
b10111101 '
b10111101 -
#2435
0$
b101 1
b0 3
b10111001 #
b10111001 2
1&
#2440
0&
b10000100 '
b10000100 -
0(
#2445
1&
#2450
0&
b11100100 '
b11100100 -
1*
#2455
1$
b110 1
b110 4
1&
#2460
0&
b11001010 '
b11001010 -
1(
0*
#2465
0$
b101 1
b1 3
b10010010 #
b10010010 2
1&
#2470
0&
b10101001 '
b10101001 -
0(
#2475
1&
#2480
0&
b10100001 '
b10100001 -
1(
1*
#2485
b10 3
b10110100 #
b10110100 2
b111 4
1&
#2490
0&
b10001110 '
b10001110 -
0(
0*
#2495
1&
#2500
0&
b11111011 '
b11111011 -
1(
1*
#2505
b11 3
b1111111 #
b1111111 2
b1000 4
1&
#2510
0&
b1011 '
b1011 -
#2515
b100 3
b10000110 #
b10000110 2
b1001 4
1&
#2520
0&
b11101111 '
b11101111 -
0(
#2525
1$
b110 1
b1010 4
1&
#2530
0&
b11001001 '
b11001001 -
#2535
b111 1
b1011 4
1&
#2540
0&
b110110 '
b110110 -
1(
0*
#2545
b110 1
b101 3
b11111010 #
b11111010 2
1&
#2550
0&
b1110101 '
b1110101 -
#2555
0$
b101 1
b110 3
b11100100 #
b11100100 2
1&
#2560
0&
b10001111 '
b10001111 -
#2565
b100 1
b111 3
b10100001 #
b10100001 2
1&
#2570
0&
b1101011 '
b1101011 -
0(
#2575
1&
#2580
0&
b10001000 '
b10001000 -
1(
1*
#2585
b1000 3
b11111011 #
b11111011 2
b1100 4
1&
#2590
0&
b10101110 '
b10101110 -
#2595
b1001 3
b1011 #
b1011 2
b1101 4
1&
#2600
0&
b10011011 '
b10011011 -
#2605
b1010 3
b11101111 #
b11101111 2
b1110 4
1&
#2610
0&
b10010010 '
b10010010 -
0(
0*
#2615
1&
#2620
0&
b101000 '
b101000 -
#2625
1&
#2630
0&
b101101 '
b101101 -
1*
#2635
b101 1
b1111 4
1&
#2640
0&
b1001011 '
b1001011 -
#2645
1$
b110 1
b0 4
1&
#2650
0&
b11000010 '
b11000010 -
1(
#2655
b1011 3
b11001001 #
b11001001 2
b1 4
1&
#2660
0&
b11110 '
b11110 -
0(
#2665
b111 1
b10 4
1&
#2670
0&
b1101 '
b1101 -
1(
0*
#2675
b110 1
b1100 3
b10001000 #
b10001000 2
1&
#2680
0&
b11101100 '
b11101100 -
0(
#2685
1&
#2690
0&
b11000 '
b11000 -
1*
#2695
b111 1
b11 4
1&
#2700
0&
b11010001 '
b11010001 -
1(
0*
#2705
b110 1
b1101 3
b10101110 #
b10101110 2
1&
#2710
0&
b10000110 '
b10000110 -
#2715
0$
b101 1
b1110 3
b10011011 #
b10011011 2
1&
#2720
0&
b1000001 '
b1000001 -
0(
#2725
1&
#2730
0&
b111011 '
b111011 -
#2735
1&
#2740
0&
b11011000 '
b11011000 -
1*
#2745
1$
b110 1
b100 4
1&
#2750
0&
b1010011 '
b1010011 -
1(
#2755
b1111 3
b101101 #
b101101 2
b101 4
1&
#2760
0&
b1010110 '
b1010110 -
0(
#2765
b111 1
b110 4
1&
#2770
0&
b1011011 '
b1011011 -
0*
#2775
1&
#2780
0&
b11100010 '
b11100010 -
1*
#2785
1!
b1000 1
b111 4
1&
#2790
0&
b100 '
b100 -
#2795
1&
#2800
0&
b1110011 '
b1110011 -
#2805
1&
#2810
0&
b11011000 '
b11011000 -
#2815
1&
#2820
0&
b10010 '
b10010 -
#2825
1&
#2830
0&
b10111000 '
b10111000 -
#2835
1&
#2840
0&
b111001 '
b111001 -
1(
#2845
0!
b111 1
b0 3
b1001011 #
b1001011 2
1&
#2850
0&
b11100101 '
b11100101 -
#2855
b1 3
b11000010 #
b11000010 2
b1000 4
1&
#2860
0&
b10100001 '
b10100001 -
0*
#2865
b110 1
b10 3
b11110 #
b11110 2
1&
#2870
0&
b101011 '
b101011 -
#2875
0$
b101 1
b11 3
b11000 #
b11000 2
1&
#2880
0&
b10000001 '
b10000001 -
1*
#2885
b100 3
b11011000 #
b11011000 2
b1001 4
1&
#2890
0&
b11001000 '
b11001000 -
0*
#2895
b100 1
b101 3
b1010011 #
b1010011 2
1&
#2900
0&
b100111 '
b100111 -
#2905
b11 1
b110 3
b1010110 #
b1010110 2
1&
#2910
0&
b10100001 '
b10100001 -
0(
#2915
1&
#2920
0&
b11111 '
b11111 -
1*
#2925
b100 1
b1010 4
1&
#2930
0&
b100 '
b100 -
#2935
b101 1
b1011 4
1&
#2940
0&
b1011000 '
b1011000 -
1(
#2945
b111 3
b11100010 #
b11100010 2
b1100 4
1&
#2950
0&
b10010110 '
b10010110 -
0*
#2955
b100 1
b1000 3
b11100101 #
b11100101 2
1&
#2960
0&
b10100 '
b10100 -
#2965
b11 1
b1001 3
b10000001 #
b10000001 2
1&
#2970
0&
b10010 '
b10010 -
0(
#2975
1&
#2980
0&
b10010110 '
b10010110 -
1(
#2985
1%
b10 1
b1010 3
b11111 #
b11111 2
1&
#2990
0&
b10110001 '
b10110001 -
0(
#2995
1&
#3000
0&
b1010101 '
b1010101 -
1(
#3005
b1 1
b1011 3
b100 #
b100 2
1&
#3010
0&
b11101101 '
b11101101 -
0(
#3015
1&
#3020
0&
b101011 '
b101011 -
1(
#3025
1"
b0 1
b1100 3
b1011000 #
b1011000 2
1&
#3030
0&
b11110101 '
b11110101 -
0(
1*
#3035
0"
b1 1
b1101 4
1&
#3040
0&
b10101101 '
b10101101 -
0*
#3045
1&
#3050
0&
b100111 '
b100111 -
#3055
1&
#3060
0&
b10000100 '
b10000100 -
1(
#3065
1"
b0 1
b1101 3
b11110101 #
b11110101 2
1&
#3070
0&
b10100111 '
b10100111 -
1*
#3075
0"
b1 1
b1110 4
1&
#3080
0&
b11100111 '
b11100111 -
#3085
b1110 3
b10100111 #
b10100111 2
b1111 4
1&
#3090
0&
b10111001 '
b10111001 -
#3095
b1111 3
b11100111 #
b11100111 2
b0 4
1&
#3100
0&
b1001001 '
b1001001 -
0*
#3105
1"
b0 1
b0 3
b10111001 #
b10111001 2
1&
#3110
0&
b11011011 '
b11011011 -
1*
#3115
0"
b1 1
b1 4
1&
#3120
0&
b11001001 '
b11001001 -
0(
#3125
b10 1
b10 4
1&
#3130
0&
b1010001 '
b1010001 -
1(
#3135
b1 3
b11011011 #
b11011011 2
b11 4
1&
#3140
0&
b10100001 '
b10100001 -
0(
0*
#3145
1&
#3150
0&
b101010 '
b101010 -
1(
#3155
b1 1
b10 3
b11001001 #
b11001001 2
1&
#3160
0&
b11111010 '
b11111010 -
1*
#3165
b11 3
b1010001 #
b1010001 2
b100 4
1&
#3170
0&
b1000101 '
b1000101 -
0*
#3175
1"
b0 1
b100 3
b11111010 #
b11111010 2
1&
